{"name":"GET list User Successfully","id":"user-transaction;get-list-user-successfully","testSteps":[{"number":1,"description":"When user send  GET list user request to server","duration":297,"startTime":"2022-06-25T15:03:25.280+07:00[Asia/Bangkok]","result":"SUCCESS","precondition":false,"level":0,"children":[{"number":2,"description":"GET https://reqres.in/api/users?page\u003d2\r","duration":0,"startTime":"2022-06-25T15:03:25.577+07:00[Asia/Bangkok]","result":"SUCCESS","restQuery":{"method":"GET","path":"https://reqres.in/api/users?page\u003d2\r","content":"\r","contentType":"null","requestHeaders":"Accept\u003d*/*\r","requestCookies":"\r","responseHeaders":"Date: Sat, 25 Jun 2022 08:03:26 GMT\r\nContent-Type: application/json; charset\u003dutf-8\r\nTransfer-Encoding: chunked\r\nConnection: keep-alive\r\nX-Powered-By: Express\r\nAccess-Control-Allow-Origin: *\r\nEtag: W/\"406-ut0vzoCuidvyMf8arZpMpJ6ZRDw\"\r\nVia: 1.1 vegur\r\nCache-Control: max-age\u003d14400\r\nCF-Cache-Status: HIT\r\nAge: 6191\r\nExpect-CT: max-age\u003d604800, report-uri\u003d\"https://report-uri.cloudflare.com/cdn-cgi/beacon/expect-ct\"\r\nReport-To: {\"endpoints\":[{\"url\":\"https:\\/\\/a.nel.cloudflare.com\\/report\\/v3?s\u003daVXnKSGbtNMgTQB6G%2BxWjYIsagT3zB2e3W6%2F0xd%2F2IlppBzZ%2F%2FD7hKWqqtyo5Ek8Nbp6qUEcq6%2BzctvTqPW47klKpmRvZGZkAJIaF5URJ5nXSf5dy3UMifJodA%3D%3D\"}],\"group\":\"cf-nel\",\"max_age\":604800}\r\nNEL: {\"success_fraction\":0,\"report_to\":\"cf-nel\",\"max_age\":604800}\r\nVary: Accept-Encoding\r\nServer: cloudflare\r\nCF-RAY: 720c2fcb48f74c3b-SIN\r\nContent-Encoding: gzip\r","responseCookies":"\r","responseBody":"{\n    \"page\": 2,\n    \"per_page\": 6,\n    \"total\": 12,\n    \"total_pages\": 2,\n    \"data\": [\n        {\n            \"id\": 7,\n            \"email\": \"michael.lawson@reqres.in\",\n            \"first_name\": \"Michael\",\n            \"last_name\": \"Lawson\",\n            \"avatar\": \"https://reqres.in/img/faces/7-image.jpg\"\n        },\n        {\n            \"id\": 8,\n            \"email\": \"lindsay.ferguson@reqres.in\",\n            \"first_name\": \"Lindsay\",\n            \"last_name\": \"Ferguson\",\n            \"avatar\": \"https://reqres.in/img/faces/8-image.jpg\"\n        },\n        {\n            \"id\": 9,\n            \"email\": \"tobias.funke@reqres.in\",\n            \"first_name\": \"Tobias\",\n            \"last_name\": \"Funke\",\n            \"avatar\": \"https://reqres.in/img/faces/9-image.jpg\"\n        },\n        {\n            \"id\": 10,\n            \"email\": \"byron.fields@reqres.in\",\n            \"first_name\": \"Byron\",\n            \"last_name\": \"Fields\",\n            \"avatar\": \"https://reqres.in/img/faces/10-image.jpg\"\n        },\n        {\n            \"id\": 11,\n            \"email\": \"george.edwards@reqres.in\",\n            \"first_name\": \"George\",\n            \"last_name\": \"Edwards\",\n            \"avatar\": \"https://reqres.in/img/faces/11-image.jpg\"\n        },\n        {\n            \"id\": 12,\n            \"email\": \"rachel.howell@reqres.in\",\n            \"first_name\": \"Rachel\",\n            \"last_name\": \"Howell\",\n            \"avatar\": \"https://reqres.in/img/faces/12-image.jpg\"\n        }\n    ],\n    \"support\": {\n        \"url\": \"https://reqres.in/#support-heading\",\n        \"text\": \"To keep ReqRes free, contributions towards server costs are appreciated!\"\n    }\n}","statusCode":200},"precondition":false,"level":1}]},{"number":3,"description":"Then response status code should be 200","duration":0,"startTime":"2022-06-25T15:03:25.577+07:00[Asia/Bangkok]","result":"SUCCESS","precondition":false,"level":0},{"number":4,"description":"And response structure should match json schema \"GetListUser.json\"","duration":16,"startTime":"2022-06-25T15:03:25.577+07:00[Asia/Bangkok]","result":"SUCCESS","precondition":false,"level":0}],"userStory":{"id":"user-transaction","storyName":"User Transaction","path":"classpath:features/api/user.feature","narrative":"  AS user has login\n  and user create data\n  and user Get data","type":"feature"},"featureTag":{"name":"Api/User Transaction","type":"feature","displayName":"Api/User Transaction"},"title":"GET list User Successfully","description":"","tags":[{"name":"Api/User Transaction","type":"feature","displayName":"User Transaction"},{"name":"GET-List","type":"tag","displayName":"GET-List"},{"name":"User","type":"tag","displayName":"User"},{"name":"Api","type":"capability","displayName":"Api"}],"startTime":"2022-06-25T15:03:25.280+07:00[Asia/Bangkok]","duration":313,"projectKey":"","isManualTestingUpToDate":false,"manual":false,"testSource":"Cucumber","result":"SUCCESS"}